\relax 
\providecommand\hyper@newdestlabel[2]{}
\catcode `"\active 
\providecommand\HyperFirstAtBeginDocument{\AtBeginDocument}
\HyperFirstAtBeginDocument{\ifx\hyper@anchor\@undefined
\global\let\oldcontentsline\contentsline
\gdef\contentsline#1#2#3#4{\oldcontentsline{#1}{#2}{#3}}
\global\let\oldnewlabel\newlabel
\gdef\newlabel#1#2{\newlabelxx{#1}#2}
\gdef\newlabelxx#1#2#3#4#5#6{\oldnewlabel{#1}{{#2}{#3}}}
\AtEndDocument{\ifx\hyper@anchor\@undefined
\let\contentsline\oldcontentsline
\let\newlabel\oldnewlabel
\fi}
\fi}
\global\let\hyper@last\relax 
\gdef\HyperFirstAtBeginDocument#1{#1}
\providecommand\HyField@AuxAddToFields[1]{}
\providecommand\HyField@AuxAddToCoFields[2]{}
\select@language{english}
\@writefile{toc}{\select@language{english}}
\@writefile{lof}{\select@language{english}}
\@writefile{lot}{\select@language{english}}
\select@language{slovene}
\@writefile{toc}{\select@language{slovene}}
\@writefile{lof}{\select@language{slovene}}
\@writefile{lot}{\select@language{slovene}}
\@writefile{toc}{\contentsline {chapter}{Seznam uporabljenih izrazov}{}{chapter*.1}}
\@writefile{toc}{\contentsline {chapter}{Povzetek}{}{chapter*.2}}
\select@language{english}
\@writefile{toc}{\select@language{english}}
\@writefile{lof}{\select@language{english}}
\@writefile{lot}{\select@language{english}}
\@writefile{toc}{\contentsline {chapter}{Abstract}{}{chapter*.3}}
\select@language{slovene}
\@writefile{toc}{\select@language{slovene}}
\@writefile{lof}{\select@language{slovene}}
\@writefile{lot}{\select@language{slovene}}
\citation{clark}
\citation{barrenechea}
\citation{wds}
\@writefile{toc}{\contentsline {chapter}{\numberline {1}Uvod}{1}{chapter.1}}
\@writefile{lof}{\addvspace {10\p@ }}
\@writefile{lot}{\addvspace {10\p@ }}
\newlabel{ch1}{{1}{1}{Uvod}{chapter.1}{}}
\citation{wfolk}
\citation{sloljudska}
\citation{wfolk}
\citation{sloljudska}
\@writefile{toc}{\contentsline {chapter}{\numberline {2}Ljudska pesem}{3}{chapter.2}}
\@writefile{lof}{\addvspace {10\p@ }}
\@writefile{lot}{\addvspace {10\p@ }}
\newlabel{ch2}{{2}{3}{Ljudska pesem}{chapter.2}{}}
\@writefile{toc}{\contentsline {section}{\numberline {2.1}Ozadje in zgodovina}{3}{section.2.1}}
\citation{pesmi}
\citation{terseglav}
\citation{glonar}
\@writefile{toc}{\contentsline {section}{\numberline {2.2}Zbiranje}{4}{section.2.2}}
\citation{sloljudska}
\citation{sloljudska}
\citation{radio}
\citation{sazu}
\citation{sloljudska}
\@writefile{toc}{\contentsline {section}{\numberline {2.3}Klasifikacija in struktura ljudske pesmi}{6}{section.2.3}}
\@writefile{toc}{\contentsline {subsection}{\numberline {2.3.1}Razdelitev}{6}{subsection.2.3.1}}
\@writefile{toc}{\contentsline {subsection}{\numberline {2.3.2}Struktura}{6}{subsection.2.3.2}}
\citation{sloljudska}
\@writefile{toc}{\contentsline {chapter}{\numberline {3}Opredelitev aplikacije}{9}{chapter.3}}
\@writefile{lof}{\addvspace {10\p@ }}
\@writefile{lot}{\addvspace {10\p@ }}
\newlabel{ch3}{{3}{9}{Opredelitev aplikacije}{chapter.3}{}}
\citation{geany}
\citation{html}
\@writefile{toc}{\contentsline {chapter}{\numberline {4}Uporabljene metode in tehnologije}{11}{chapter.4}}
\@writefile{lof}{\addvspace {10\p@ }}
\@writefile{lot}{\addvspace {10\p@ }}
\newlabel{ch4}{{4}{11}{Uporabljene metode in tehnologije}{chapter.4}{}}
\@writefile{toc}{\contentsline {section}{\numberline {4.1}Programska oprema}{11}{section.4.1}}
\@writefile{toc}{\contentsline {section}{\numberline {4.2}Jeziki}{11}{section.4.2}}
\citation{php}
\citation{python}
\citation{javascript}
\@writefile{toc}{\contentsline {subsection}{\numberline {4.2.1}HTML in CSS}{12}{subsection.4.2.1}}
\@writefile{toc}{\contentsline {subsection}{\numberline {4.2.2}PHP}{12}{subsection.4.2.2}}
\@writefile{toc}{\contentsline {subsection}{\numberline {4.2.3}Python}{12}{subsection.4.2.3}}
\@writefile{toc}{\contentsline {section}{\numberline {4.3}Javascript}{12}{section.4.3}}
\citation{d3js}
\citation{jquery}
\citation{gmaps}
\citation{angular}
\citation{jquerypopup}
\@writefile{toc}{\contentsline {subsection}{\numberline {4.3.1}D3.js}{13}{subsection.4.3.1}}
\@writefile{toc}{\contentsline {subsection}{\numberline {4.3.2}jQuery}{13}{subsection.4.3.2}}
\@writefile{toc}{\contentsline {subsection}{\numberline {4.3.3}Gmaps.js}{13}{subsection.4.3.3}}
\@writefile{toc}{\contentsline {subsection}{\numberline {4.3.4}AngularJS}{13}{subsection.4.3.4}}
\citation{mds}
\@writefile{toc}{\contentsline {subsection}{\numberline {4.3.5}Ostalo}{14}{subsection.4.3.5}}
\@writefile{toc}{\contentsline {section}{\numberline {4.4}MDS}{14}{section.4.4}}
\@writefile{toc}{\contentsline {chapter}{\numberline {5}Delo s podatki}{15}{chapter.5}}
\@writefile{lof}{\addvspace {10\p@ }}
\@writefile{lot}{\addvspace {10\p@ }}
\newlabel{ch5}{{5}{15}{Delo s podatki}{chapter.5}{}}
\@writefile{toc}{\contentsline {section}{\numberline {5.1}Glavna zbirka podatkov}{15}{section.5.1}}
\citation{marolt2014}
\@writefile{toc}{\contentsline {section}{\numberline {5.2}Matrika podobnosti}{16}{section.5.2}}
\@writefile{toc}{\contentsline {section}{\numberline {5.3}Za\IeC {\v c}etna obdelava podatkov s Pythonom}{17}{section.5.3}}
\@writefile{toc}{\contentsline {section}{\numberline {5.4}Obdelava v okviru aplikacije}{18}{section.5.4}}
\@writefile{toc}{\contentsline {chapter}{\numberline {6}Postopek na\IeC {\v c}rtovanja}{19}{chapter.6}}
\@writefile{lof}{\addvspace {10\p@ }}
\@writefile{lot}{\addvspace {10\p@ }}
\newlabel{ch6}{{6}{19}{Postopek načrtovanja}{chapter.6}{}}
\@writefile{toc}{\contentsline {section}{\numberline {6.1}Razdelitev na nivoje}{19}{section.6.1}}
\@writefile{lof}{\contentsline {figure}{\numberline {6.1}{\ignorespaces Prvotna ideja o prikazu variantnih tipov}}{20}{figure.6.1}}
\newlabel{fig:nacrt1}{{6.1}{20}{Prvotna ideja o prikazu variantnih tipov}{figure.6.1}{}}
\@writefile{toc}{\contentsline {section}{\numberline {6.2}Prvi nivo - Variantni tipi}{20}{section.6.2}}
\@writefile{lof}{\contentsline {figure}{\numberline {6.2}{\ignorespaces Seznam s filtriranjem}}{21}{figure.6.2}}
\newlabel{fig:nacrt2}{{6.2}{21}{Seznam s filtriranjem}{figure.6.2}{}}
\@writefile{lof}{\contentsline {figure}{\numberline {6.3}{\ignorespaces Prikaz regij, ki ni bil uporabljen}}{22}{figure.6.3}}
\newlabel{fig:nacrt3}{{6.3}{22}{Prikaz regij, ki ni bil uporabljen}{figure.6.3}{}}
\@writefile{toc}{\contentsline {section}{\numberline {6.3}Drugi nivo - Variante}{22}{section.6.3}}
\citation{dataflow}
\@writefile{lof}{\contentsline {figure}{\numberline {6.4}{\ignorespaces Prikaz variant dolo\IeC {\v c}enega tipa po \IeC {\v c}asu}}{23}{figure.6.4}}
\newlabel{fig:nacrt4}{{6.4}{23}{Prikaz variant določenega tipa po času}{figure.6.4}{}}
\@writefile{toc}{\contentsline {section}{\numberline {6.4}Tretji nivo - Besedilo}{23}{section.6.4}}
\@writefile{toc}{\contentsline {section}{\numberline {6.5}Oblikovanje}{23}{section.6.5}}
\@writefile{toc}{\contentsline {chapter}{\numberline {7}Implementacija}{25}{chapter.7}}
\@writefile{lof}{\addvspace {10\p@ }}
\@writefile{lot}{\addvspace {10\p@ }}
\newlabel{ch7}{{7}{25}{Implementacija}{chapter.7}{}}
\@writefile{toc}{\contentsline {section}{\numberline {7.1}Prvi nivo}{25}{section.7.1}}
\citation{mds}
\@writefile{lof}{\contentsline {figure}{\numberline {7.1}{\ignorespaces Zaslonska maska prvega nivoja}}{26}{figure.7.1}}
\newlabel{fig:imp1}{{7.1}{26}{Zaslonska maska prvega nivoja}{figure.7.1}{}}
\@writefile{lof}{\contentsline {figure}{\numberline {7.2}{\ignorespaces Seznam implementiran z AngularJS}}{27}{figure.7.2}}
\newlabel{fig:imp2}{{7.2}{27}{Seznam implementiran z AngularJS}{figure.7.2}{}}
\@writefile{lof}{\contentsline {figure}{\numberline {7.3}{\ignorespaces Pojavno okno z variantami}}{28}{figure.7.3}}
\newlabel{fig:imp3}{{7.3}{28}{Pojavno okno z variantami}{figure.7.3}{}}
\@writefile{toc}{\contentsline {section}{\numberline {7.2}Drugi nivo}{28}{section.7.2}}
\citation{subpat}
\@writefile{lof}{\contentsline {figure}{\numberline {7.4}{\ignorespaces Besedilo variacije}}{29}{figure.7.4}}
\newlabel{fig:imp4}{{7.4}{29}{Besedilo variacije}{figure.7.4}{}}
\@writefile{toc}{\contentsline {section}{\numberline {7.3}Tretji nivo}{29}{section.7.3}}
\@writefile{toc}{\contentsline {section}{\numberline {7.4}Oblikovanje}{29}{section.7.4}}
\@writefile{toc}{\contentsline {chapter}{\numberline {8}Sklepne ugotovitve}{31}{chapter.8}}
\@writefile{lof}{\addvspace {10\p@ }}
\@writefile{lot}{\addvspace {10\p@ }}
\newlabel{ch8}{{8}{31}{Sklepne ugotovitve}{chapter.8}{}}
\@writefile{toc}{\contentsline {section}{\numberline {8.1}Mo\IeC {\v z}ne izbolj\IeC {\v s}ave}{31}{section.8.1}}
\@writefile{toc}{\contentsline {section}{\numberline {8.2}Zaklju\IeC {\v c}ek}{32}{section.8.2}}
\citation{*}
\bibdata{diploma}
\bibcite{radio}{1}
\bibcite{sazu}{2}
\bibcite{subpat}{3}
\bibcite{wds}{4}
\bibcite{wfolk}{5}
\bibcite{barrenechea}{6}
\bibcite{clark}{7}
\bibcite{pesmi}{8}
\bibcite{mds}{9}
\bibcite{dataflow}{10}
\bibcite{sloljudska}{11}
\bibcite{geany}{12}
\bibcite{html}{13}
\bibcite{php}{14}
\bibcite{python}{15}
\bibcite{javascript}{16}
\bibcite{d3js}{17}
\bibcite{jquery}{18}
\bibcite{gmaps}{19}
\bibcite{angular}{20}
\bibcite{jquerypopup}{21}
\bibcite{marolt2014}{22}
\bibcite{terseglav}{23}
\bibcite{glonar}{24}
\bibstyle{plain}
