This is BibTeX, Version 0.99dThe top-level auxiliary file: diploma.aux
The style file: plain.bst
Database file #1: diploma.bib
Warning--to sort, need author or key in wds
Warning--to sort, need author or key in wfolk
Warning--to sort, need author or key in radio
Warning--to sort, need author or key in sazu
Warning--to sort, need author or key in subpat
(There were 5 warnings)
