\relax 
\providecommand\hyper@newdestlabel[2]{}
\catcode `"\active 
\providecommand\HyperFirstAtBeginDocument{\AtBeginDocument}
\HyperFirstAtBeginDocument{\ifx\hyper@anchor\@undefined
\global\let\oldcontentsline\contentsline
\gdef\contentsline#1#2#3#4{\oldcontentsline{#1}{#2}{#3}}
\global\let\oldnewlabel\newlabel
\gdef\newlabel#1#2{\newlabelxx{#1}#2}
\gdef\newlabelxx#1#2#3#4#5#6{\oldnewlabel{#1}{{#2}{#3}}}
\AtEndDocument{\ifx\hyper@anchor\@undefined
\let\contentsline\oldcontentsline
\let\newlabel\oldnewlabel
\fi}
\fi}
\global\let\hyper@last\relax 
\gdef\HyperFirstAtBeginDocument#1{#1}
\providecommand\HyField@AuxAddToFields[1]{}
\providecommand\HyField@AuxAddToCoFields[2]{}
\select@language{english}
\@writefile{toc}{\select@language{english}}
\@writefile{lof}{\select@language{english}}
\@writefile{lot}{\select@language{english}}
\select@language{slovene}
\@writefile{toc}{\select@language{slovene}}
\@writefile{lof}{\select@language{slovene}}
\@writefile{lot}{\select@language{slovene}}
\@writefile{toc}{\contentsline {chapter}{Povzetek}{}{chapter*.2}}
\select@language{english}
\@writefile{toc}{\select@language{english}}
\@writefile{lof}{\select@language{english}}
\@writefile{lot}{\select@language{english}}
\@writefile{toc}{\contentsline {chapter}{Abstract}{}{chapter*.3}}
\select@language{slovene}
\@writefile{toc}{\select@language{slovene}}
\@writefile{lof}{\select@language{slovene}}
\@writefile{lot}{\select@language{slovene}}
\citation{clark}
\citation{barrenechea}
\@writefile{toc}{\contentsline {chapter}{\numberline {1}Uvod}{1}{chapter.1}}
\@writefile{lof}{\addvspace {10\p@ }}
\@writefile{lot}{\addvspace {10\p@ }}
\@writefile{toc}{\contentsline {section}{\numberline {1.1}Sklicevanje na besedilne konstrukte}{2}{section.1.1}}
\newlabel{ch1}{{1.1}{2}{Sklicevanje na besedilne konstrukte}{section.1.1}{}}
\newlabel{iz:1}{{1.1}{2}{Sklicevanje na besedilne konstrukte}{izrek.1.1}{}}
\newlabel{eq:1}{{1.1}{2}{Sklicevanje na besedilne konstrukte}{equation.1.1.1}{}}
\newlabel{eq:2}{{1.2}{2}{Sklicevanje na besedilne konstrukte}{equation.1.1.2}{}}
\newlabel{eq:3}{{1.3}{2}{Sklicevanje na besedilne konstrukte}{equation.1.1.3}{}}
\@writefile{toc}{\contentsline {section}{\numberline {1.2}Plovke: slike in tabele}{2}{section.1.2}}
\newlabel{ch2}{{1.2}{2}{Plovke: slike in tabele}{section.1.2}{}}
\@writefile{lof}{\contentsline {figure}{\numberline {1.1}{\ignorespaces Herschelov graf, vektorska grafika.}}{3}{figure.1.1}}
\newlabel{pic1}{{1.1}{3}{Herschelov graf, vektorska grafika}{figure.1.1}{}}
\@writefile{lot}{\contentsline {table}{\numberline {1.1}{\ignorespaces }}{3}{table.1.1}}
\newlabel{tbl:1}{{1.1}{3}{}{table.1.1}{}}
\@writefile{toc}{\contentsline {subsection}{\numberline {1.2.1}Formati slik}{3}{subsection.1.2.1}}
\citation{pdfa}
\@writefile{lof}{\contentsline {figure}{\numberline {1.2}{\ignorespaces Kateri dialekt uporabljati?}}{4}{figure.1.2}}
\newlabel{pic2}{{1.2}{4}{Kateri dialekt uporabljati?}{figure.1.2}{}}
\@writefile{toc}{\contentsline {section}{\numberline {1.3}PDF/A}{4}{section.1.3}}
\citation{sloljudska}
\@writefile{toc}{\contentsline {chapter}{\numberline {2}O ljudskih pesmih}{7}{chapter.2}}
\@writefile{lof}{\addvspace {10\p@ }}
\@writefile{lot}{\addvspace {10\p@ }}
\@writefile{toc}{\contentsline {section}{\numberline {2.1}Ozadje in zgodovina}{7}{section.2.1}}
\@writefile{toc}{\contentsline {section}{\numberline {2.2}Zbiranje}{7}{section.2.2}}
\@writefile{toc}{\contentsline {chapter}{\numberline {3}Vizualizacija podatkov}{9}{chapter.3}}
\@writefile{lof}{\addvspace {10\p@ }}
\@writefile{lot}{\addvspace {10\p@ }}
\@writefile{toc}{\contentsline {section}{\numberline {3.1}Pomen}{9}{section.3.1}}
\@writefile{toc}{\contentsline {chapter}{\numberline {4}Uporabljene metode in tehnologije}{11}{chapter.4}}
\@writefile{lof}{\addvspace {10\p@ }}
\@writefile{lot}{\addvspace {10\p@ }}
\@writefile{toc}{\contentsline {chapter}{\numberline {5}Struktura, pomen in obdelava podatkov}{13}{chapter.5}}
\@writefile{lof}{\addvspace {10\p@ }}
\@writefile{lot}{\addvspace {10\p@ }}
\@writefile{toc}{\contentsline {chapter}{\numberline {6}Postopek na\IeC {\v c}rtovanja}{15}{chapter.6}}
\@writefile{lof}{\addvspace {10\p@ }}
\@writefile{lot}{\addvspace {10\p@ }}
\@writefile{toc}{\contentsline {chapter}{\numberline {7}Implementacija}{17}{chapter.7}}
\@writefile{lof}{\addvspace {10\p@ }}
\@writefile{lot}{\addvspace {10\p@ }}
\@writefile{toc}{\contentsline {chapter}{\numberline {8}Sklepne ugotovitve}{19}{chapter.8}}
\@writefile{lof}{\addvspace {10\p@ }}
\@writefile{lot}{\addvspace {10\p@ }}
\@writefile{toc}{\contentsline {chapter}{\numberline {9}Viri}{21}{chapter.9}}
\@writefile{lof}{\addvspace {10\p@ }}
\@writefile{lot}{\addvspace {10\p@ }}
\newlabel{ch3}{{9}{21}{Viri}{chapter.9}{}}
\citation{*}
\bibdata{literature}
\bibstyle{plain}
